…
[Destination](https://dlthub.com/docs/devel/general-usage/destination) の `rest_api_pokemon.duckdb` を調べてみます。

```sh
$ ~/.duckdb/cli/latest/duckdb rest_api_pokemon.duckdb
v1.2.1 8e52ec4395
Enter ".help" for usage hints.
D .tables
_dlt_loads           _dlt_version         location           
_dlt_pipeline_state  berry                pokemon            
D .schema pokemon
CREATE TABLE rest_api_data.pokemon("name" VARCHAR, url VARCHAR, _dlt_load_id VARCHAR NOT NULL, _dlt_id VARCHAR NOT NULL);
D .maxrows 10
D select * from rest_api_data.pokemon;
┌──────────────────────┬──────────────────────────────────────────┬───────────────────┬────────────────┐
│         name         │                   url                    │   _dlt_load_id    │    _dlt_id     │
│       varchar        │                 varchar                  │      varchar      │    varchar     │
├──────────────────────┼──────────────────────────────────────────┼───────────────────┼────────────────┤
│ bulbasaur            │ https://pokeapi.co/api/v2/pokemon/1/     │ 1751941203.521931 │ rRaJzqYDYOQKzw │
│ ivysaur              │ https://pokeapi.co/api/v2/pokemon/2/     │ 1751941203.521931 │ f+4TykRTqpvGow │
│ venusaur             │ https://pokeapi.co/api/v2/pokemon/3/     │ 1751941203.521931 │ jLaaVsbYDZ2RKg │
│ charmander           │ https://pokeapi.co/api/v2/pokemon/4/     │ 1751941203.521931 │ l63T6AFiyzV1Mw │
│ charmeleon           │ https://pokeapi.co/api/v2/pokemon/5/     │ 1751941203.521931 │ H6cElA2854FO/A │
│     ·                │                  ·                       │         ·         │       ·        │
│     ·                │                  ·                       │         ·         │       ·        │
│     ·                │                  ·                       │         ·         │       ·        │
│ ogerpon-wellspring…  │ https://pokeapi.co/api/v2/pokemon/10273/ │ 1751941203.521931 │ 3ngMzqxa7i1/vA │
│ ogerpon-hearthflam…  │ https://pokeapi.co/api/v2/pokemon/10274/ │ 1751941203.521931 │ wEsxg2ZxkTOgHg │
│ ogerpon-cornerston…  │ https://pokeapi.co/api/v2/pokemon/10275/ │ 1751941203.521931 │ GAB25+W8YF47cg │
│ terapagos-terastal   │ https://pokeapi.co/api/v2/pokemon/10276/ │ 1751941203.521931 │ 9Eu4tjzcesxQCQ │
│ terapagos-stellar    │ https://pokeapi.co/api/v2/pokemon/10277/ │ 1751941203.521931 │ v/g6/OOE1W5xLg │
├──────────────────────┴──────────────────────────────────────────┴───────────────────┴────────────────┤
│ 1302 rows (10 shown)                                                                       4 columns │
└──────────────────────────────────────────────────────────────────────────────────────────────────────┘
…
