…
## 時間を進める
このサンプルは、データを追加するスクリプトが付いているので、[sushi-overview.ipynb](https://github.com/TobikoData/sqlmesh-examples/blob/main/001_sushi/sushi-overview.ipynb) に従って、データを追加します。

### 進める前に
上のノートブックのように、raw データを見ておきます。

```
$ duckdb db/sushi-example.db 
v1.2.1 8e52ec4395
Enter ".help" for usage hints.
D .maxrows 10
D SELECT * FROM raw.marketing;
┌───────┬─────────────┬──────────┐
│  id   │ customer_id │  status  │
│ int32 │    int32    │ varchar  │
├───────┼─────────────┼──────────┤
│     0 │           0 │ INACTIVE │
│     1 │           1 │ ACTIVE   │
│     2 │           2 │ ACTIVE   │
│     3 │           3 │ ACTIVE   │
│     4 │           4 │ ACTIVE   │
│     · │           · │   ·      │
│     · │           · │   ·      │
│     · │           · │   ·      │
│    95 │          95 │ INACTIVE │
│    96 │          96 │ ACTIVE   │
│    97 │          97 │ ACTIVE   │
│    98 │          98 │ ACTIVE   │
│    99 │          99 │ ACTIVE   │
├───────┴─────────────┴──────────┤
│ 100 rows (10 shown)  3 columns │
└────────────────────────────────┘
D SELECT * FROM raw.demographics;
┌───────┬─────────────┬─────────┐
│  id   │ customer_id │   zip   │
│ int32 │    int32    │ varchar │
├───────┼─────────────┼─────────┤
│     0 │           0 │ 10645   │
│     1 │           1 │ 10343   │
│     2 │           2 │ 10865   │
│     3 │           3 │ 10194   │
│     4 │           4 │ 10248   │
│     · │           · │   ·     │
│     · │           · │   ·     │
│     · │           · │   ·     │
│    95 │          95 │ 10059   │
│    96 │          96 │ 10807   │
│    97 │          97 │ 10692   │
│    98 │          98 │ 10162   │
│    99 │          99 │ 10997   │
├───────┴─────────────┴─────────┤
│      100 rows (10 shown)      │
└───────────────────────────────┘
D SELECT * FROM raw.items;
┌───────┬───────────┬────────┬────────────┐
│  id   │   name    │ price  │     ds     │
│ int32 │  varchar  │ double │    date    │
├───────┼───────────┼────────┼────────────┤
│     0 │ Hotate    │   7.59 │ 2023-10-01 │
│     1 │ Tsubugai  │   6.33 │ 2023-10-01 │
│     2 │ Ahi       │    9.0 │ 2023-10-01 │
│     3 │ Sake Toro │   6.98 │ 2023-10-01 │
│     4 │ Ikura     │   3.98 │ 2023-10-01 │
│     · │   ·       │     ·  │     ·      │
│     · │   ·       │     ·  │     ·      │
│     · │   ·       │     ·  │     ·      │
│    21 │ Maguro    │   7.89 │ 2023-10-05 │
│    22 │ Katsuo    │   8.64 │ 2023-10-05 │
│    23 │ Hotate    │   9.75 │ 2023-10-05 │
│    24 │ Hamachi   │   7.09 │ 2023-10-05 │
│    25 │ Iwashi    │   6.46 │ 2023-10-05 │
├───────┴───────────┴────────┴────────────┤
│ 135 rows (10 shown)           4 columns │
└─────────────────────────────────────────┘
D SELECT * FROM raw.orders;
┌───────┬─────────────┬───────────┬────────────┬────────────┬────────────┐
│  id   │ customer_id │ waiter_id │  start_ts  │   end_ts   │     ds     │
│ int32 │    int32    │   int32   │   int32    │   int32    │    date    │
├───────┼─────────────┼───────────┼────────────┼────────────┼────────────┤
│     1 │          30 │         5 │ 1696145535 │ 1696145999 │ 2023-10-01 │
│     2 │          24 │         3 │ 1696120330 │ 1696120878 │ 2023-10-01 │
│     3 │          53 │         7 │ 1696181564 │ 1696181617 │ 2023-10-01 │
│     4 │          92 │         5 │ 1696128237 │ 1696130039 │ 2023-10-01 │
│     5 │          47 │         0 │ 1696137970 │ 1696139066 │ 2023-10-01 │
│     · │           · │         · │      ·     │      ·     │     ·      │
│     · │           · │         · │      ·     │      ·     │     ·      │
│     · │           · │         · │      ·     │      ·     │     ·      │
│    22 │          89 │         8 │ 1696487497 │ 1696487828 │ 2023-10-05 │
│    23 │          82 │         0 │ 1696538377 │ 1696540659 │ 2023-10-05 │
│    24 │          64 │         2 │ 1696483088 │ 1696483726 │ 2023-10-05 │
│    25 │          44 │         9 │ 1696499488 │ 1696500502 │ 2023-10-05 │
│    26 │          98 │         5 │ 1696531975 │ 1696534401 │ 2023-10-05 │
├───────┴─────────────┴───────────┴────────────┴────────────┴────────────┤
│ 135 rows (10 shown)                                          6 columns │
└────────────────────────────────────────────────────────────────────────┘
D SELECT * FROM raw.order_items;
┌───────┬──────────┬─────────┬──────────┬────────────┐
│  id   │ order_id │ item_id │ quantity │     ds     │
│ int32 │  int32   │  int32  │  int32   │    date    │
├───────┼──────────┼─────────┼──────────┼────────────┤
│     1 │        1 │      15 │        3 │ 2023-10-01 │
│     2 │        1 │       0 │        4 │ 2023-10-01 │
│     3 │        1 │       6 │        6 │ 2023-10-01 │
│     4 │        1 │      22 │        4 │ 2023-10-01 │
│     5 │        1 │       8 │        9 │ 2023-10-01 │
│     · │        · │       · │        · │     ·      │
│     · │        · │       · │        · │     ·      │
│     · │        · │       · │        · │     ·      │
│    71 │       25 │       4 │        5 │ 2023-10-05 │
│    72 │       25 │       2 │        5 │ 2023-10-05 │
│    73 │       25 │      11 │        8 │ 2023-10-05 │
│    74 │       26 │      12 │        2 │ 2023-10-05 │
│    75 │       26 │      23 │        5 │ 2023-10-05 │
├───────┴──────────┴─────────┴──────────┴────────────┤
│ 350 rows (10 shown)                      5 columns │
└────────────────────────────────────────────────────┘
…
Run finished for environment 'prod'

```

 `cron '@daily'` のような各モデルのサイクルの指定と実際のアクションをスケジュールすることで定期的な実行ができそうです。

一応、データベースも見ておきます。いくつか 10/6 のレコードが登録されているのがわかります。

```
$ duckdb db/sushi-example.db 
v1.2.1 8e52ec4395
Enter ".help" for usage hints.
D .maxrows 10
D select * from sushisimple.customer_revenue_by_day;
┌─────────────┬────────────────────┬────────────┐
│ customer_id │      revenue       │     ds     │
│    int32    │       double       │  varchar   │
├─────────────┼────────────────────┼────────────┤
│           1 │               57.1 │ 2023-10-04 │
│           1 │              57.93 │ 2023-10-06 │
│           3 │ 47.459999999999994 │ 2023-10-05 │
│           4 │              18.76 │ 2023-10-03 │
│           5 │             108.59 │ 2023-10-05 │
│           · │                ·   │     ·      │
│           · │                ·   │     ·      │
│           · │                ·   │     ·      │
│          97 │              179.4 │ 2023-10-06 │
│          98 │             115.53 │ 2023-10-04 │
│          98 │              62.43 │ 2023-10-05 │
│          98 │             100.96 │ 2023-10-06 │
│          99 │              19.44 │ 2023-10-04 │
├─────────────┴────────────────────┴────────────┤
│ 142 rows (10 shown)                 3 columns │
└───────────────────────────────────────────────┘
D select * from sushisimple.customers;
┌─────────────┬──────────┬─────────┐
│ customer_id │  status  │   zip   │
│    int32    │ varchar  │ varchar │
├─────────────┼──────────┼─────────┤
│           1 │ ACTIVE   │ 10343   │
│           3 │ ACTIVE   │ 10194   │
│           5 │ ACTIVE   │ 10016   │
│          11 │ ACTIVE   │ 10380   │
│          16 │ INACTIVE │ 10835   │
│           · │   ·      │   ·     │
│           · │   ·      │   ·     │
│           · │   ·      │   ·     │
│          96 │ ACTIVE   │ 10807   │
│          98 │ ACTIVE   │ 10162   │
│          99 │ ACTIVE   │ 10997   │
│          29 │ INACTIVE │ 10958   │
│          59 │ ACTIVE   │ 10695   │
├─────────────┴──────────┴─────────┤
│ 87 rows (10 shown)     3 columns │
└──────────────────────────────────┘
D select * from sushisimple.waiter_revenue_by_day;
┌───────────┬────────────────────┬────────────┐
│ waiter_id │      revenue       │     ds     │
│   int32   │       double       │  varchar   │
├───────────┼────────────────────┼────────────┤
│         0 │             132.27 │ 2023-10-01 │
│         0 │              60.05 │ 2023-10-03 │
│         0 │             290.16 │ 2023-10-04 │
│         0 │  408.7900000000001 │ 2023-10-05 │
│         0 │              35.68 │ 2023-10-06 │
│         · │                ·   │     ·      │
│         · │                ·   │     ·      │
│         · │                ·   │     ·      │
│         9 │              32.24 │ 2023-10-02 │
│         9 │             357.92 │ 2023-10-03 │
│         9 │               41.4 │ 2023-10-04 │
│         9 │             321.75 │ 2023-10-05 │
│         9 │ 324.96999999999997 │ 2023-10-06 │
├───────────┴────────────────────┴────────────┤
│ 56 rows (10 shown)                3 columns │
└─────────────────────────────────────────────┘
…
