…
エラーや警告が出ているが、以下のとおり、1302 行が DuckDB に格納されました。

```
$ ~/.duckdb/cli/latest/duckdb 
v1.2.1 8e52ec4395
Enter ".help" for usage hints.
Connected to a transient in-memory database.
Use ".open FILENAME" to reopen on a persistent database.
D .open rest_api_pokemon.duckdb
D .tables
_dlt_loads           _dlt_version         location           
_dlt_pipeline_state  berry                pokemon            
D select * from rest_api_data.pokemon;
┌─────────────────────────────┬──────────────────────────────────────────┬───────────────────┬────────────────┐
│            name             │                   url                    │   _dlt_load_id    │    _dlt_id     │
│           varchar           │                 varchar                  │      varchar      │    varchar     │
├─────────────────────────────┼──────────────────────────────────────────┼───────────────────┼────────────────┤
│ bulbasaur                   │ https://pokeapi.co/api/v2/pokemon/1/     │ 1743927071.383116 │ x5YRTG/PnZDqLA │
│ ivysaur                     │ https://pokeapi.co/api/v2/pokemon/2/     │ 1743927071.383116 │ aOkyEKUQqT5I+g │
│ venusaur                    │ https://pokeapi.co/api/v2/pokemon/3/     │ 1743927071.383116 │ LSFAjHFmu3nksw │
│ charmander                  │ https://pokeapi.co/api/v2/pokemon/4/     │ 1743927071.383116 │ 9LH0ak/5YqWQ/Q │
│ charmeleon                  │ https://pokeapi.co/api/v2/pokemon/5/     │ 1743927071.383116 │ KbgLYyCcZmWBZg │
│ charizard                   │ https://pokeapi.co/api/v2/pokemon/6/     │ 1743927071.383116 │ HC8UYN6tXMi4LQ │
│ squirtle                    │ https://pokeapi.co/api/v2/pokemon/7/     │ 1743927071.383116 │ Jp9dJ61hn5neEQ │
│ wartortle                   │ https://pokeapi.co/api/v2/pokemon/8/     │ 1743927071.383116 │ 0b15UoCBQMu20Q │
│ blastoise                   │ https://pokeapi.co/api/v2/pokemon/9/     │ 1743927071.383116 │ q3XR4Zx3UiWTPQ │
│ caterpie                    │ https://pokeapi.co/api/v2/pokemon/10/    │ 1743927071.383116 │ h7Hs47VCSQpGaQ │
│ metapod                     │ https://pokeapi.co/api/v2/pokemon/11/    │ 1743927071.383116 │ Xib1OanrtXydsw │
│ butterfree                  │ https://pokeapi.co/api/v2/pokemon/12/    │ 1743927071.383116 │ wk79bEDFV7pgQQ │
│ weedle                      │ https://pokeapi.co/api/v2/pokemon/13/    │ 1743927071.383116 │ u8HsCI6QhFUtrw │
│ kakuna                      │ https://pokeapi.co/api/v2/pokemon/14/    │ 1743927071.383116 │ +6rbvqAFsFDTvw │
│ beedrill                    │ https://pokeapi.co/api/v2/pokemon/15/    │ 1743927071.383116 │ /txiUsIf0Kd/vQ │
│ pidgey                      │ https://pokeapi.co/api/v2/pokemon/16/    │ 1743927071.383116 │ j5wfFIfo1ZCVFQ │
│ pidgeotto                   │ https://pokeapi.co/api/v2/pokemon/17/    │ 1743927071.383116 │ rwCzjLbfmGyHrw │
│ pidgeot                     │ https://pokeapi.co/api/v2/pokemon/18/    │ 1743927071.383116 │ Q25KkTxI0cKF/w │
│ rattata                     │ https://pokeapi.co/api/v2/pokemon/19/    │ 1743927071.383116 │ 37qoBEd+yA2azQ │
│ raticate                    │ https://pokeapi.co/api/v2/pokemon/20/    │ 1743927071.383116 │ 9JZo2lO/tw7zow │
│    ·                        │                   ·                      │         ·         │       ·        │
│    ·                        │                   ·                      │         ·         │       ·        │
│    ·                        │                   ·                      │         ·         │       ·        │
│ tatsugiri-droopy            │ https://pokeapi.co/api/v2/pokemon/10258/ │ 1743927071.383116 │ glDbU62GwBf+Xw │
│ tatsugiri-stretchy          │ https://pokeapi.co/api/v2/pokemon/10259/ │ 1743927071.383116 │ L6/XzsIRwmSYCQ │
│ squawkabilly-blue-plumage   │ https://pokeapi.co/api/v2/pokemon/10260/ │ 1743927071.383116 │ ci2F5LvfTJG+AA │
│ squawkabilly-yellow-plumage │ https://pokeapi.co/api/v2/pokemon/10261/ │ 1743927071.383116 │ t7nsdzb8iq2Yig │
│ squawkabilly-white-plumage  │ https://pokeapi.co/api/v2/pokemon/10262/ │ 1743927071.383116 │ dhQevhXet2Ivng │
│ gimmighoul-roaming          │ https://pokeapi.co/api/v2/pokemon/10263/ │ 1743927071.383116 │ kvk7X9K0cgAPyQ │
│ koraidon-limited-build      │ https://pokeapi.co/api/v2/pokemon/10264/ │ 1743927071.383116 │ syWzCkYGTmxW4w │
│ koraidon-sprinting-build    │ https://pokeapi.co/api/v2/pokemon/10265/ │ 1743927071.383116 │ QLRg03EXUlxBSQ │
│ koraidon-swimming-build     │ https://pokeapi.co/api/v2/pokemon/10266/ │ 1743927071.383116 │ KgMSLmMgVUEYng │
│ koraidon-gliding-build      │ https://pokeapi.co/api/v2/pokemon/10267/ │ 1743927071.383116 │ Gr2Q9K9iteTejw │
│ miraidon-low-power-mode     │ https://pokeapi.co/api/v2/pokemon/10268/ │ 1743927071.383116 │ bIkyu2abvRVECA │
│ miraidon-drive-mode         │ https://pokeapi.co/api/v2/pokemon/10269/ │ 1743927071.383116 │ UfBO+4Mfxw293w │
│ miraidon-aquatic-mode       │ https://pokeapi.co/api/v2/pokemon/10270/ │ 1743927071.383116 │ Mr5sNDwmjyv70g │
│ miraidon-glide-mode         │ https://pokeapi.co/api/v2/pokemon/10271/ │ 1743927071.383116 │ P7HIoBde+8ytgg │
│ ursaluna-bloodmoon          │ https://pokeapi.co/api/v2/pokemon/10272/ │ 1743927071.383116 │ w70EJa8XFs6Rgw │
│ ogerpon-wellspring-mask     │ https://pokeapi.co/api/v2/pokemon/10273/ │ 1743927071.383116 │ 2Z7lu3PHgNQPYw │
│ ogerpon-hearthflame-mask    │ https://pokeapi.co/api/v2/pokemon/10274/ │ 1743927071.383116 │ pZWubGPwSSsKxQ │
│ ogerpon-cornerstone-mask    │ https://pokeapi.co/api/v2/pokemon/10275/ │ 1743927071.383116 │ 6YNuuUZuJVz3Cg │
│ terapagos-terastal          │ https://pokeapi.co/api/v2/pokemon/10276/ │ 1743927071.383116 │ +5y8clVXDqV7eQ │
│ terapagos-stellar           │ https://pokeapi.co/api/v2/pokemon/10277/ │ 1743927071.383116 │ K9TmDZyyMsyynA │
├─────────────────────────────┴──────────────────────────────────────────┴───────────────────┴────────────────┤
│ 1302 rows (40 shown)                                                                              4 columns │
└─────────────────────────────────────────────────────────────────────────────────────────────────────────────┘
…
```
$ uv run sql_database_pipeline.py 
Pipeline sql_to_duckdb_pipeline load step completed in 4.34 seconds
1 load package(s) were loaded to destination duckdb and into dataset sql_to_duckdb_pipeline_data
The duckdb destination used duckdb:////home/ec2-user/work/mds/dlt-getting-started/sql-db/sql_to_duckdb_pipeline.duckdb location to store data
Load package 1744006598.0197978 is LOADED and contains no failed jobs
$ ~/.duckdb/cli/latest/duckdb 
v1.2.1 8e52ec4395
Enter ".help" for usage hints.
Connected to a transient in-memory database.
Use ".open FILENAME" to reopen on a persistent database.
D .open sql_to_duckdb_pipeline.duckdb
D select * from sql_to_duckdb_pipeline_data.genome;
┌─────────────┬─────────────────┬──────────────────┬─────────┬───┬──────────────────────┬──────────────────────┬────────────────────┬────────────────┐
│    upid     │  assembly_acc   │ assembly_version │ wgs_acc │ … │       created        │       updated        │    _dlt_load_id    │    _dlt_id     │
│   varchar   │     varchar     │      int64       │ varchar │   │ timestamp with tim…  │ timestamp with tim…  │      varchar       │    varchar     │
├─────────────┼─────────────────┼──────────────────┼─────────┼───┼──────────────────────┼──────────────────────┼────────────────────┼────────────────┤
│ RG000000001 │ NULL            │             NULL │ NULL    │ … │ 2017-06-06 15:11:0…  │ 2020-04-23 11:46:0…  │ 1744006598.0197978 │ RAoK+ODZamk3UQ │
│ RG000000002 │ NULL            │             NULL │ NULL    │ … │ 2017-06-06 15:11:0…  │ 2020-04-23 11:46:0…  │ 1744006598.0197978 │ drTISYKdQQ9B2g │
│ RG000000003 │ NULL            │             NULL │ NULL    │ … │ 2017-06-06 15:11:1…  │ 2020-04-23 11:47:1…  │ 1744006598.0197978 │ PpqHdR+rXcfIrw │
│ RG000000004 │ NULL            │             NULL │ NULL    │ … │ 2017-06-06 15:11:1…  │ 2020-04-23 11:46:0…  │ 1744006598.0197978 │ Gx2w3Lx18MhAJw │
│ RG000000005 │ NULL            │             NULL │ NULL    │ … │ 2017-06-06 15:11:2…  │ 2020-04-23 11:46:2…  │ 1744006598.0197978 │ drDFcqU8/hAPAw │
│ RG000000006 │ NULL            │             NULL │ NULL    │ … │ 2017-06-06 15:11:2…  │ 2020-04-23 11:52:3…  │ 1744006598.0197978 │ JqAi5zqERM4xyQ │
│ RG000000007 │ GCA_000413255.1 │                1 │ NULL    │ … │ 2017-06-06 15:11:2…  │ 2020-04-23 11:44:5…  │ 1744006598.0197978 │ kf3xKgFBwCRY2w │
│ RG000000009 │ GCF_000836845.1 │                1 │ NULL    │ … │ 2017-06-06 15:11:4…  │ 2020-04-23 11:49:5…  │ 1744006598.0197978 │ zfrLC0X2XNk8iQ │
│ RG000000010 │ GCF_000840125.1 │                1 │ NULL    │ … │ 2017-06-06 15:11:4…  │ 2020-04-23 11:46:2…  │ 1744006598.0197978 │ 77rxN5om2PJxRw │
│ RG000000011 │ GCF_000847605.1 │                1 │ NULL    │ … │ 2017-06-06 15:11:5…  │ 2020-04-23 11:46:0…  │ 1744006598.0197978 │ 2FwYLNks8oC1IQ │
│ RG000000012 │ GCF_000847825.1 │                1 │ NULL    │ … │ 2017-06-06 15:11:5…  │ 2020-04-23 11:46:3…  │ 1744006598.0197978 │ ffZy/QDTO/AS4Q │
│ RG000000013 │ GCF_000849085.1 │                1 │ NULL    │ … │ 2017-06-06 15:12:0…  │ 2020-04-23 11:47:2…  │ 1744006598.0197978 │ hgJPzGytJjMW7Q │
│ RG000000016 │ GCF_000849285.2 │                2 │ NULL    │ … │ 2017-06-06 15:12:1…  │ 2020-04-23 11:48:0…  │ 1744006598.0197978 │ +ClNxwioiVyKAA │
│ RG000000019 │ GCF_000853665.1 │                1 │ NULL    │ … │ 2017-06-06 15:12:2…  │ 2020-04-23 11:46:0…  │ 1744006598.0197978 │ pkPzLyG19KqYoQ │
│ RG000000020 │ GCF_000854685.1 │                1 │ NULL    │ … │ 2017-06-06 15:12:3…  │ 2020-04-23 11:49:5…  │ 1744006598.0197978 │ RcAEzAhDMJZhYA │
│ RG000000021 │ GCF_000854865.1 │                1 │ NULL    │ … │ 2017-06-06 15:12:3…  │ 2020-04-23 11:46:0…  │ 1744006598.0197978 │ gs+pOektB6J8IA │
│ RG000000025 │ GCF_000849985.1 │                1 │ NULL    │ … │ 2017-06-06 15:12:5…  │ 2020-04-23 11:46:1…  │ 1744006598.0197978 │ lN2m551byT+kww │
│ RG000000026 │ GCF_000852745.1 │                1 │ NULL    │ … │ 2017-06-06 15:12:5…  │ 2020-04-23 11:48:0…  │ 1744006598.0197978 │ RO2pMMDgrpUP+w │
│ RG000000027 │ NC_038861.1     │                1 │ NULL    │ … │ 2020-05-06 14:56:5…  │ 2024-09-10 04:53:1…  │ 1744006598.0197978 │ 39PRFerp+sByMw │
│ RG000000028 │ NC_032730.1     │                1 │ NULL    │ … │ 2020-05-06 14:56:5…  │ 2024-09-10 04:56:1…  │ 1744006598.0197978 │ v1HJFZlwxL/w+A │
│      ·      │      ·          │                · │  ·      │ · │          ·           │          ·           │         ·          │       ·        │
│      ·      │      ·          │                · │  ·      │ · │          ·           │          ·           │         ·          │       ·        │
│      ·      │      ·          │                · │  ·      │ · │          ·           │          ·           │         ·          │       ·        │
│ UP001269074 │ GCA_031320445.1 │                1 │ NULL    │ … │ 2024-06-27 09:23:0…  │ 2024-09-02 20:32:5…  │ 1744006598.0197978 │ 3N9L7w5vHw7Daw │
│ UP001269135 │ GCA_031297675.1 │                1 │ NULL    │ … │ 2024-06-28 19:29:5…  │ 2024-09-02 20:32:5…  │ 1744006598.0197978 │ R4AgPHTwF01Kuw │
│ UP001269161 │ GCA_032416515.1 │                1 │ NULL    │ … │ 2024-06-27 09:21:3…  │ 2024-09-02 20:32:5…  │ 1744006598.0197978 │ PpzQ8eKDQ2ZyjQ │
│ UP001269216 │ GCA_031314795.1 │                1 │ NULL    │ … │ 2024-06-27 09:22:0…  │ 2024-09-02 20:32:5…  │ 1744006598.0197978 │ z9Fpycw+xob8TQ │
│ UP001269251 │ GCA_032423685.1 │                1 │ NULL    │ … │ 2024-06-28 19:33:2…  │ 2024-09-02 20:32:5…  │ 1744006598.0197978 │ 7rBXZviyfFCniA │
│ UP001269254 │ GCA_031249865.1 │                1 │ NULL    │ … │ 2024-06-27 11:07:5…  │ 2024-09-02 20:32:5…  │ 1744006598.0197978 │ gHS9qUlQJ/w60g │
│ UP001269288 │ GCA_031298415.1 │                1 │ NULL    │ … │ 2024-06-28 19:30:5…  │ 2024-09-02 20:32:5…  │ 1744006598.0197978 │ 8UiqwxmwRImv1A │
│ UP001269304 │ GCA_031579545.1 │                1 │ NULL    │ … │ 2024-06-27 09:20:5…  │ 2024-09-02 20:32:5…  │ 1744006598.0197978 │ dnLPvoyA6qaoUA │
│ UP001269323 │ GCA_031315845.1 │                1 │ NULL    │ … │ 2024-06-27 09:23:4…  │ 2024-09-02 20:32:5…  │ 1744006598.0197978 │ aTc+gmY5ZiDT2g │
│ UP001269365 │ GCA_031297925.1 │                1 │ NULL    │ … │ 2024-06-27 09:19:5…  │ 2024-09-02 20:32:5…  │ 1744006598.0197978 │ 4OsdbYElmRpmJg │
│ UP001269389 │ GCA_031315295.1 │                1 │ NULL    │ … │ 2024-06-27 09:23:1…  │ 2024-09-02 20:32:5…  │ 1744006598.0197978 │ xDaVRqSqQkNP8Q │
│ UP001269398 │ GCA_031311295.1 │                1 │ NULL    │ … │ 2024-06-27 09:26:3…  │ 2024-09-02 20:32:5…  │ 1744006598.0197978 │ Cb0ZVbpstoqOSg │
│ UP001269477 │ GCA_031345405.1 │                1 │ NULL    │ … │ 2024-06-27 09:19:2…  │ 2024-09-02 20:32:5…  │ 1744006598.0197978 │ kCVeFFc3kJsTzA │
│ UP001269491 │ GCA_031313775.1 │                1 │ NULL    │ … │ 2024-06-28 19:33:5…  │ 2024-09-02 20:32:5…  │ 1744006598.0197978 │ 4jniuAfE2ukDJg │
│ UP001295947 │ GCA_963583325.1 │                1 │ NULL    │ … │ 2024-06-27 09:26:4…  │ 2024-09-02 20:32:5…  │ 1744006598.0197978 │ 5cMRssA3IYvIuw │
│ UP001295980 │ GCA_963583275.1 │                1 │ NULL    │ … │ 2024-06-27 09:26:3…  │ 2024-09-02 20:32:5…  │ 1744006598.0197978 │ 0uw4c/GtNPHWKw │
│ UP001296009 │ GCA_963583145.1 │                1 │ NULL    │ … │ 2024-06-28 19:29:4…  │ 2024-09-02 20:32:5…  │ 1744006598.0197978 │ v4LNPAv7TBgHXg │
│ UP001296230 │ GCA_963583065.1 │                1 │ NULL    │ … │ 2024-06-27 09:19:4…  │ 2024-09-02 20:32:5…  │ 1744006598.0197978 │ a3Xa1ncobXmLeg │
│ UP001296237 │ GCA_963583445.1 │                1 │ NULL    │ … │ 2024-06-28 19:34:5…  │ 2024-09-02 20:32:5…  │ 1744006598.0197978 │ Tu6c6BRCZM8ORg │
│ x           │ NULL            │             NULL │ NULL    │ … │ 2017-05-15 11:09:5…  │ 2020-04-23 11:53:1…  │ 1744006598.0197978 │ 0tjpW6cUvc+WbA │
├─────────────┴─────────────────┴──────────────────┴─────────┴───┴──────────────────────┴──────────────────────┴────────────────────┴────────────────┤
│ 32169 rows (40 shown)                                                                                                         24 columns (8 shown) │
└────────────────────────────────────────────────────────────────────────────────────────────────────────────────────────────────────────────────────┘
…
