…
DuckDB で確認します。

```
$ ~/.duckdb/cli/latest/duckdb 
v1.2.1 8e52ec4395
Enter ".help" for usage hints.
Connected to a transient in-memory database.
Use ".open FILENAME" to reopen on a persistent database.
D .open dev.duckdb
D .tables
customers            my_second_dbt_model  raw_orders         
my_first_dbt_model   raw_customers        raw_payments       
D select * from customers;
┌─────────────┬────────────┬───────────┬──────────────────┬────────────────────────┬──────────────────┐
│ customer_id │ first_name │ last_name │ first_order_date │ most_recent_order_date │ number_of_orders │
│    int32    │  varchar   │  varchar  │       date       │          date          │      int64       │
├─────────────┼────────────┼───────────┼──────────────────┼────────────────────────┼──────────────────┤
│           1 │ Michael    │ P.        │ 2018-01-01       │ 2018-02-10             │                2 │
│           2 │ Shawn      │ M.        │ 2018-01-11       │ 2018-01-11             │                1 │
│           3 │ Kathleen   │ P.        │ 2018-01-02       │ 2018-03-11             │                3 │
│           6 │ Sarah      │ R.        │ 2018-02-19       │ 2018-02-19             │                1 │
│           7 │ Martin     │ M.        │ 2018-01-14       │ 2018-01-14             │                1 │
│           8 │ Frank      │ R.        │ 2018-01-29       │ 2018-03-12             │                2 │
│           9 │ Jennifer   │ F.        │ 2018-03-17       │ 2018-03-17             │                1 │
│          11 │ Fred       │ S.        │ 2018-03-23       │ 2018-03-23             │                1 │
│          12 │ Amy        │ D.        │ 2018-03-03       │ 2018-03-03             │                1 │
│          13 │ Kathleen   │ M.        │ 2018-03-07       │ 2018-03-07             │                1 │
│          16 │ Amanda     │ H.        │ 2018-02-02       │ 2018-02-02             │                1 │
│          18 │ Johnny     │ K.        │ 2018-02-27       │ 2018-02-27             │                1 │
│          19 │ Virginia   │ F.        │ 2018-03-16       │ 2018-03-16             │                1 │
│          20 │ Anna       │ A.        │ 2018-01-23       │ 2018-01-23             │                1 │
│          21 │ Willie     │ H.        │ 2018-03-28       │ 2018-03-28             │                1 │
│          22 │ Sean       │ H.        │ 2018-01-26       │ 2018-03-01             │                3 │
│          25 │ Victor     │ H.        │ 2018-01-17       │ 2018-03-20             │                2 │
│          26 │ Aaron      │ R.        │ 2018-02-11       │ 2018-03-08             │                2 │
│          27 │ Benjamin   │ B.        │ 2018-02-21       │ 2018-04-04             │                2 │
│          28 │ Lisa       │ W.        │ 2018-02-04       │ 2018-02-04             │                1 │
│           · │  ·         │ ·         │  ·               │  ·                     │                · │
│           · │  ·         │ ·         │  ·               │  ·                     │                · │
│           · │  ·         │ ·         │  ·               │  ·                     │                · │
│          60 │ Norma      │ W.        │ NULL             │ NULL                   │                0 │
│          61 │ Timothy    │ R.        │ NULL             │ NULL                   │                0 │
│          62 │ Elizabeth  │ P.        │ NULL             │ NULL                   │                0 │
│          65 │ Brenda     │ W.        │ NULL             │ NULL                   │                0 │
│          67 │ Michael    │ H.        │ NULL             │ NULL                   │                0 │
│          72 │ Kathryn    │ O.        │ NULL             │ NULL                   │                0 │
│          73 │ Alan       │ B.        │ NULL             │ NULL                   │                0 │
│          74 │ Harry      │ A.        │ NULL             │ NULL                   │                0 │
│          75 │ Andrea     │ H.        │ NULL             │ NULL                   │                0 │
│          77 │ Anne       │ W.        │ NULL             │ NULL                   │                0 │
│          78 │ Harry      │ H.        │ NULL             │ NULL                   │                0 │
│          81 │ Shirley    │ H.        │ NULL             │ NULL                   │                0 │
│          82 │ Arthur     │ D.        │ NULL             │ NULL                   │                0 │
│          83 │ Virginia   │ R.        │ NULL             │ NULL                   │                0 │
│          87 │ Phillip    │ B.        │ NULL             │ NULL                   │                0 │
│          95 │ Lisa       │ P.        │ NULL             │ NULL                   │                0 │
│          96 │ Jacqueline │ A.        │ NULL             │ NULL                   │                0 │
│          97 │ Shirley    │ D.        │ NULL             │ NULL                   │                0 │
│          98 │ Nicole     │ M.        │ NULL             │ NULL                   │                0 │
│         100 │ Jean       │ M.        │ NULL             │ NULL                   │                0 │
├─────────────┴────────────┴───────────┴──────────────────┴────────────────────────┴──────────────────┤
│ 100 rows (40 shown)                                                                       6 columns │
└─────────────────────────────────────────────────────────────────────────────────────────────────────┘
…
